\relax 
\@writefile{toc}{\contentsline {chapter}{\numberline {1}About this dtstatistic}{5}}
\@writefile{lof}{\addvspace {10\p@ }}
\@writefile{lot}{\addvspace {10\p@ }}
\@writefile{loa}{\addvspace {10\p@ }}
\@writefile{toc}{\contentsline {section}{\numberline {1.1}What it dtstatistic}{5}}
\@writefile{toc}{\contentsline {section}{\numberline {1.2}Input}{5}}
\@writefile{lot}{\contentsline {table}{\numberline {1.1}{\ignorespaces Dtstatistic Parameters. * Required.}}{5}}
\newlabel{table:parameters}{{1.1}{5}}
\@setckpt{./chapters/chapter01}{
\setcounter{page}{7}
\setcounter{equation}{0}
\setcounter{enumi}{0}
\setcounter{enumii}{0}
\setcounter{enumiii}{0}
\setcounter{enumiv}{0}
\setcounter{footnote}{0}
\setcounter{mpfootnote}{0}
\setcounter{part}{0}
\setcounter{chapter}{1}
\setcounter{section}{2}
\setcounter{subsection}{0}
\setcounter{subsubsection}{0}
\setcounter{paragraph}{0}
\setcounter{subparagraph}{0}
\setcounter{figure}{0}
\setcounter{table}{1}
\setcounter{parentequation}{0}
\setcounter{AlgoLine}{0}
\setcounter{algocfline}{0}
\setcounter{algocfproc}{0}
\setcounter{algocf}{0}
\setcounter{subfigure}{0}
\setcounter{lofdepth}{1}
\setcounter{subtable}{0}
\setcounter{lotdepth}{1}
\setcounter{float@type}{8}
\setcounter{lstnumber}{1}
\setcounter{theorem}{0}
\setcounter{dem}{0}
\setcounter{lstlisting}{0}
}
